%!PS-Adobe-3.0 EPSF-3.0
%%Title: pissacostlogo.fig
%%Creator: fig2dev Version 3.2 Patchlevel 5d
%%CreationDate: Wed Feb 22 17:43:34 2012
%%BoundingBox: 0 0 147 149
%Magnification: 1.0000
%%EndComments
%%BeginProlog
/$F2psDict 200 dict def
$F2psDict begin
$F2psDict /mtrx matrix put
/col-1 {0 setgray} bind def
/col0 {0.000 0.000 0.000 srgb} bind def
/col1 {0.000 0.000 1.000 srgb} bind def
/col2 {0.000 1.000 0.000 srgb} bind def
/col3 {0.000 1.000 1.000 srgb} bind def
/col4 {1.000 0.000 0.000 srgb} bind def
/col5 {1.000 0.000 1.000 srgb} bind def
/col6 {1.000 1.000 0.000 srgb} bind def
/col7 {1.000 1.000 1.000 srgb} bind def
/col8 {0.000 0.000 0.560 srgb} bind def
/col9 {0.000 0.000 0.690 srgb} bind def
/col10 {0.000 0.000 0.820 srgb} bind def
/col11 {0.530 0.810 1.000 srgb} bind def
/col12 {0.000 0.560 0.000 srgb} bind def
/col13 {0.000 0.690 0.000 srgb} bind def
/col14 {0.000 0.820 0.000 srgb} bind def
/col15 {0.000 0.560 0.560 srgb} bind def
/col16 {0.000 0.690 0.690 srgb} bind def
/col17 {0.000 0.820 0.820 srgb} bind def
/col18 {0.560 0.000 0.000 srgb} bind def
/col19 {0.690 0.000 0.000 srgb} bind def
/col20 {0.820 0.000 0.000 srgb} bind def
/col21 {0.560 0.000 0.560 srgb} bind def
/col22 {0.690 0.000 0.690 srgb} bind def
/col23 {0.820 0.000 0.820 srgb} bind def
/col24 {0.500 0.190 0.000 srgb} bind def
/col25 {0.630 0.250 0.000 srgb} bind def
/col26 {0.750 0.380 0.000 srgb} bind def
/col27 {1.000 0.500 0.500 srgb} bind def
/col28 {1.000 0.630 0.630 srgb} bind def
/col29 {1.000 0.750 0.750 srgb} bind def
/col30 {1.000 0.880 0.880 srgb} bind def
/col31 {1.000 0.840 0.000 srgb} bind def

end

/cp {closepath} bind def
/ef {eofill} bind def
/gr {grestore} bind def
/gs {gsave} bind def
/sa {save} bind def
/rs {restore} bind def
/l {lineto} bind def
/m {moveto} bind def
/rm {rmoveto} bind def
/n {newpath} bind def
/s {stroke} bind def
/sh {show} bind def
/slc {setlinecap} bind def
/slj {setlinejoin} bind def
/slw {setlinewidth} bind def
/srgb {setrgbcolor} bind def
/rot {rotate} bind def
/sc {scale} bind def
/sd {setdash} bind def
/ff {findfont} bind def
/sf {setfont} bind def
/scf {scalefont} bind def
/sw {stringwidth} bind def
/tr {translate} bind def
/tnt {dup dup currentrgbcolor
  4 -2 roll dup 1 exch sub 3 -1 roll mul add
  4 -2 roll dup 1 exch sub 3 -1 roll mul add
  4 -2 roll dup 1 exch sub 3 -1 roll mul add srgb}
  bind def
/shd {dup dup currentrgbcolor 4 -2 roll mul 4 -2 roll mul
  4 -2 roll mul srgb} bind def
 /DrawEllipse {
	/endangle exch def
	/startangle exch def
	/yrad exch def
	/xrad exch def
	/y exch def
	/x exch def
	/savematrix mtrx currentmatrix def
	x y tr xrad yrad sc 0 0 1 startangle endangle arc
	closepath
	savematrix setmatrix
	} def

/$F2psBegin {$F2psDict begin /$F2psEnteredState save def} def
/$F2psEnd {$F2psEnteredState restore end} def

/pageheader {
save
newpath 0 149 moveto 0 0 lineto 147 0 lineto 147 149 lineto closepath clip newpath
-345.1 346.6 translate
1 -1 scale
$F2psBegin
10 setmiterlimit
0 slj 0 slc
 0.06299 0.06299 sc
} bind def
/pagefooter {
$F2psEnd
restore
} bind def
%%EndProlog
pageheader
%
% Fig objects follow
%
% 
% here starts figure with depth 57
% Polyline
0 slj
0 slc
7.500 slw
n 5640 3915 m 5535 3915 5535 5295 105 arcto 4 {pop} repeat
  5535 5400 7680 5400 105 arcto 4 {pop} repeat
  7785 5400 7785 4020 105 arcto 4 {pop} repeat
  7785 3915 5640 3915 105 arcto 4 {pop} repeat
 cp gs 0.00 setgray ef gr gs col0 s gr 
% here ends figure;
% 
% here starts figure with depth 55
% Polyline
0 slj
0 slc
7.500 slw
n 5595 3780 m 5490 3780 5490 5205 105 arcto 4 {pop} repeat
  5490 5310 7590 5310 105 arcto 4 {pop} repeat
  7695 5310 7695 3885 105 arcto 4 {pop} repeat
  7695 3780 5595 3780 105 arcto 4 {pop} repeat
 cp gs col23 1.00 shd ef gr gs col0 s gr 
% here ends figure;
% 
% here starts figure with depth 51
% Polyline
0 slj
0 slc
30.000 slw
gs  clippath
6722 5266 m 6858 5402 l 6932 5328 l 6796 5192 l 6796 5192 l 6876 5346 l 6722 5266 l cp
6102 4498 m 5966 4362 l 5892 4436 l 6028 4572 l 6028 4572 l 5949 4419 l 6102 4498 l cp
eoclip
n 5940 4410 m
 6885 5355 l gs col7 s gr gr

% arrowhead
7.500 slw
n 6102 4498 m 5949 4419 l 6028 4572 l 6102 4498 l  cp gs col7 1.00 shd ef gr  col7 s
% arrowhead
n 6722 5266 m 6876 5346 l 6796 5192 l 6722 5266 l  cp gs col7 1.00 shd ef gr  col7 s
% Ellipse
15.000 slw
n 6975 4275 675 675 0 360 DrawEllipse gs col25 1.00 shd ef gr gs col-1 s gr

% Polyline
7.500 slw
n 6705 3555 m
 5760 4545 l gs col0 s gr 
% Polyline
n 7743 4458 m
 6750 5490 l gs col0 s gr 
% Polyline
15.000 slw
gs  clippath
6737 5270 m 6863 5397 l 6927 5333 l 6800 5207 l 6800 5207 l 6875 5345 l 6737 5270 l cp
6087 4494 m 5961 4367 l 5897 4431 l 6024 4557 l 6024 4557 l 5950 4420 l 6087 4494 l cp
eoclip
n 5940 4410 m
 6885 5355 l gs col0 s gr gr

% arrowhead
7.500 slw
n 6087 4494 m 5950 4420 l 6024 4557 l 6087 4494 l  cp gs 0.00 setgray ef gr  col0 s
% arrowhead
n 6737 5270 m 6875 5345 l 6800 5207 l 6737 5270 l  cp gs 0.00 setgray ef gr  col0 s
% Polyline
0.000 slw
n 5625 3150 m
 7650 3150 l 
% Ellipse
7.500 slw
n 6975 4275 585 585 0 360 DrawEllipse gs col26 1.00 shd ef gr gs col0 s gr

% Ellipse
n 7200 4005 135 135 0 360 DrawEllipse gs col4 1.00 shd ef gr gs col4 s gr

% Ellipse
n 6615 4365 135 135 0 360 DrawEllipse gs col4 1.00 shd ef gr gs col4 s gr

% Ellipse
n 7292 4372 135 135 0 360 DrawEllipse gs col4 1.00 shd ef gr gs col4 s gr

% Ellipse
n 6840 3960 135 135 0 360 DrawEllipse gs col4 1.00 shd ef gr gs col4 s gr

% Ellipse
n 6975 4365 135 135 0 360 DrawEllipse gs col4 1.00 shd ef gr gs col4 s gr

% Ellipse
n 6960 4694 135 135 0 360 DrawEllipse gs col4 1.00 shd ef gr gs col4 s gr

% here ends figure;
% 
% here starts figure with depth 46
% Polyline
0 slj
0 slc
7.500 slw
n 6615 4140 m 6795 4095 l 7110 4140 l 7065 4230 l 6840 4185 l 6705 4185 l
 6480 4140 l
 cp gs col14 1.00 shd ef gr gs col14 s gr 
/Symbol ff 793.75 scf sf
5625 5175 m
gs 1 -1 sc (F) col0 sh gr
/Symbol ff 793.75 scf sf
5580 5175 m
gs 1 -1 sc (F) col7 sh gr
% here ends figure;
% 
% here starts figure with depth 43
% Polyline
0 slj
0 slc
0.000 slw
n 6750 4005 m 6480 4005 l 6525 4095 l 6480 4140 l 6615 4140 l 6660 4050 l
 6795 4095 l
 cp gs col7 1.00 shd ef gr 
% Polyline
n 7470 4185 m 7200 4185 l 7245 4095 l 7200 4050 l 7335 4050 l 7380 4140 l
 7515 4095 l
 cp gs col7 1.00 shd ef gr 
% Polyline
n 6795 4545 m 7065 4545 l 7020 4635 l 7065 4680 l 6930 4680 l 6885 4590 l
 6750 4635 l
 cp gs col7 1.00 shd ef gr 
% Polyline
n 7290 4545 m 7020 4545 l 7065 4635 l 7020 4680 l 7155 4680 l 7200 4590 l
 7335 4635 l
 cp gs col7 1.00 shd ef gr 
% here ends figure;
% 
% here starts figure with depth 40
/Times-Roman ff 635.00 scf sf
7020 4365 m
gs 1 -1 sc ($) dup sw pop 2 div neg 0 rm  col0 sh gr
% here ends figure;
pagefooter
showpage
%%Trailer
%EOF
